EDA_Facial_Features
…
library(grid)
library(devtools)
library(ggfortify)

au_data = read.csv('AU_df.csv', header=TRUE)
full_data = read.csv('Bellevue_final_data.csv', header=TRUE)

testing_variables = full_data %>%
  select('ID', 'pcl_1m_cutoff', 'Sex', 'SelfReport_Age', 'Race')

au_data = as.tibble(au_data)
print(au_data)

## # A tibble: 80 x 36
##       ID AU01_r AU02_r AU04_r  AU05_r AU06_r AU07_r  AU09_r AU10_r AU12_r
##    <int>  <dbl>  <dbl>  <dbl>   <dbl>  <dbl>  <dbl>   <dbl>  <dbl>  <dbl>
##  1  1069  1.52   2.49   1.88   1.24   0.126   0.229 0.00105  0.439 0.629 
##  2  1264  0.575  0.886  1.85   0.0282 0.465   0.116 0.448    0.869 0.282 
##  3  1290  0.575  0.473  2.58   1.42   0.359   0.356 0.230    0.820 0.0116
##  4  1051  0.562  0.129  1.23   0.296  0.430   0.911 1.28     0.807 0.114 
##  5  1237  1.66   1.79   1.87   0.959  0.556   0.533 0.203    1.10  0.763 
##  6  1005  1.75   2.82   2.06   1.04   0.257   1.22  0.470    0.179 0.0497
##  7  1230  1.88   1.88   1.83   1.08   0.138   0.350 0.00765  0.231 0.249 
##  8  1298  0.943  0.568  2.15  -0.410  0.344   1.36  0.267    0.794 0.0196
##  9  1068  1.87   2.25   0.426  0.510  0.254   0.750 0.601    1.21  0.393 
## 10  1236  1.92   2.11   2.70   0.872  0.0524  0.302 0.174    0.469 0.191 
## # ... with 70 more rows, and 26 more variables: AU14_r <dbl>,
## #   AU15_r <dbl>, AU17_r <dbl>, AU20_r <dbl>, AU23_r <dbl>, AU25_r <dbl>,
## #   AU26_r <dbl>, AU45_r <dbl>, AU01_c <int>, AU02_c <int>, AU04_c <int>,
## #   AU05_c <int>, AU06_c <int>, AU07_c <int>, AU09_c <int>, AU10_c <int>,
## #   AU12_c <int>, AU14_c <int>, AU15_c <int>, AU17_c <int>, AU20_c <int>,
## #   AU23_c <int>, AU25_c <int>, AU26_c <int>, AU28_c <int>, AU45_c <int>

testing_variables = as.tibble(testing_variables)
print(testing_variables)

## # A tibble: 81 x 5
##       ID pcl_1m_cutoff   Sex SelfReport_Age Race                     
##    <int>         <int> <int>          <int> <fct>                    
##  1  1069             0     0             31 Black and Asian          
##  2  1264             1     1             55 Arab American            
##  3  1290             1     1             28 Black or African American
##  4  1297             0     1             61 White                    
##  5  1051             0     1             24 Other: Caucasion & Latino
##  6  1237             0     0             27 white                    
##  7  1005             0     1             53 White                    
##  8  1230             1     0             36 white                    
##  9  1298             0     1             67 White                    
## 10  1068             0     0             62 White                    
## # ... with 71 more rows

colnames(testing_variables)[colnames(testing_variables)=="study_id"] <- "ID"
colnames(testing_variables)[colnames(testing_variables)=="pcl_1m_cutoff"] <- "ptsd"
colnames(testing_variables)[colnames(testing_variables)=="SelfReport_Age"] <- "Age"
print(testing_variables)

## # A tibble: 81 x 5
##       ID  ptsd   Sex   Age Race                     
##    <int> <int> <int> <int> <fct>                    
##  1  1069     0     0    31 Black and Asian          
##  2  1264     1     1    55 Arab American            
##  3  1290     1     1    28 Black or African American
##  4  1297     0     1    61 White                    
##  5  1051     0     1    24 Other: Caucasion & Latino
##  6  1237     0     0    27 white                    
##  7  1005     0     1    53 White                    
##  8  1230     1     0    36 white                    
##  9  1298     0     1    67 White                    
## 10  1068     0     0    62 White                    
## # ... with 71 more rows
…
